[gd_scene load_steps=7 format=2]

[ext_resource path="res://Scenes/FinishScreen.gd" type="Script" id=1]
[ext_resource path="res://Assets/Minecraft.ttf" type="DynamicFontData" id=3]

[sub_resource type="StreamTexture" id=1]
flags = 4
load_path = "res://.import/GameOver.png-b2af411af6389951b545fa2ef91115e4.stex"

[sub_resource type="DynamicFontData" id=2]
font_path = "res://Assets/Minecraft.ttf"

[sub_resource type="DynamicFont" id=3]
size = 60
font_data = SubResource( 2 )

[sub_resource type="DynamicFont" id=4]
size = 230
font_data = ExtResource( 3 )

[node name="Finish" type="ColorRect"]
anchor_right = 1.0
anchor_bottom = 1.0
color = Color( 0, 0, 0, 1 )
script = ExtResource( 1 )
__meta__ = {
"_edit_use_anchors_": false
}

[node name="Sprite" type="Sprite" parent="."]
visible = false
position = Vector2( 512.038, 300.065 )
texture = SubResource( 1 )

[node name="Timer" type="Timer" parent="."]

[node name="Time" type="Label" parent="."]
margin_left = 970.0
margin_top = 536.676
margin_right = 1011.0
margin_bottom = 596.676
custom_fonts/font = SubResource( 3 )
text = "5"
__meta__ = {
"_edit_use_anchors_": false
}

[node name="You Won" type="Label" parent="."]
margin_left = 144.292
margin_top = 82.0688
margin_right = 894.292
margin_bottom = 587.069
custom_fonts/font = SubResource( 4 )
text = "YOU
WIN"
align = 1
valign = 1
__meta__ = {
"_edit_use_anchors_": false
}
[connection signal="timeout" from="Timer" to="." method="_on_Timer_timeout"]
